DONE WITH READING PAIRS
DONE WITH PREPARING TRAIN DATA
DONE WITH PREPARING VALIDATION DATA
PREPROCESSING DONE!
Testing model output:
(32, 402, 445)
Model: "transformer_model"
_________________________________________________________________
 Layer (type)                Output Shape              Param #   
=================================================================
 positional_embedding_layer   multiple                 6656      
 (PositionalEmbeddingLayer)                                      
                                                                 
 encoder_layer (EncoderLayer  multiple                 4470784   
 )                                                               
                                                                 
 encoder_layer_1 (EncoderLay  multiple                 4470784   
 er)                                                             
                                                                 
 encoder_layer_2 (EncoderLay  multiple                 4470784   
 er)                                                             
                                                                 
 positional_embedding_layer_  multiple                 113920    
 1 (PositionalEmbeddingLayer                                     
 )                                                               
                                                                 
 decoder_layer (DecoderLayer  multiple                 8678144   
 )                                                               
                                                                 
 decoder_layer_1 (DecoderLay  multiple                 8678144   
 er)                                                             
                                                                 
 decoder_layer_2 (DecoderLay  multiple                 8678144   
 er)                                                             
                                                                 
 dense_12 (Dense)            multiple                  114365    
                                                                 
=================================================================
Total params: 39,681,725
Trainable params: 39,681,725
Non-trainable params: 0
_________________________________________________________________
Epoch 1/100
2813/2813 - 1906s - loss: 3.9078 - accuracy_function: 0.2135 - val_loss: 4.5769 - val_accuracy_function: 0.1081 - 1906s/epoch - 678ms/step
Epoch 2/100
2813/2813 - 1877s - loss: 2.2655 - accuracy_function: 0.4548 - val_loss: 1.1021 - val_accuracy_function: 0.6662 - 1877s/epoch - 667ms/step
Epoch 3/100
2813/2813 - 1878s - loss: 0.6344 - accuracy_function: 0.7943 - val_loss: 0.5070 - val_accuracy_function: 0.8134 - 1878s/epoch - 667ms/step
Epoch 4/100
2813/2813 - 1882s - loss: 0.3698 - accuracy_function: 0.8668 - val_loss: 0.3863 - val_accuracy_function: 0.8499 - 1882s/epoch - 669ms/step
Epoch 5/100
2813/2813 - 1885s - loss: 0.2865 - accuracy_function: 0.8930 - val_loss: 0.3453 - val_accuracy_function: 0.8668 - 1885s/epoch - 670ms/step
Epoch 6/100
2813/2813 - 1885s - loss: 0.2465 - accuracy_function: 0.9065 - val_loss: 0.3105 - val_accuracy_function: 0.8788 - 1885s/epoch - 670ms/step
Epoch 7/100
2813/2813 - 1886s - loss: 0.2218 - accuracy_function: 0.9153 - val_loss: 0.2967 - val_accuracy_function: 0.8842 - 1886s/epoch - 670ms/step
Epoch 8/100
2813/2813 - 1886s - loss: 0.2036 - accuracy_function: 0.9219 - val_loss: 0.2874 - val_accuracy_function: 0.8891 - 1886s/epoch - 670ms/step
Epoch 9/100
2813/2813 - 1882s - loss: 0.1895 - accuracy_function: 0.9272 - val_loss: 0.2732 - val_accuracy_function: 0.8939 - 1882s/epoch - 669ms/step
Epoch 10/100
2813/2813 - 1872s - loss: 0.1781 - accuracy_function: 0.9314 - val_loss: 0.2658 - val_accuracy_function: 0.8970 - 1872s/epoch - 665ms/step
Epoch 11/100
2813/2813 - 1872s - loss: 0.1690 - accuracy_function: 0.9348 - val_loss: 0.2625 - val_accuracy_function: 0.8993 - 1872s/epoch - 665ms/step
Epoch 12/100
2813/2813 - 1872s - loss: 0.1608 - accuracy_function: 0.9379 - val_loss: 0.2569 - val_accuracy_function: 0.9006 - 1872s/epoch - 666ms/step
Epoch 13/100
2813/2813 - 1872s - loss: 0.1538 - accuracy_function: 0.9406 - val_loss: 0.2617 - val_accuracy_function: 0.9011 - 1872s/epoch - 665ms/step
Epoch 14/100
2813/2813 - 1872s - loss: 0.1475 - accuracy_function: 0.9430 - val_loss: 0.2549 - val_accuracy_function: 0.9028 - 1872s/epoch - 665ms/step
Epoch 15/100
2813/2813 - 1871s - loss: 0.1419 - accuracy_function: 0.9451 - val_loss: 0.2498 - val_accuracy_function: 0.9037 - 1871s/epoch - 665ms/step
Epoch 16/100
2813/2813 - 1870s - loss: 0.1364 - accuracy_function: 0.9472 - val_loss: 0.2584 - val_accuracy_function: 0.9034 - 1870s/epoch - 665ms/step
Epoch 17/100
2813/2813 - 1871s - loss: 0.1313 - accuracy_function: 0.9492 - val_loss: 0.2597 - val_accuracy_function: 0.9027 - 1871s/epoch - 665ms/step
Epoch 18/100
2813/2813 - 1873s - loss: 0.1263 - accuracy_function: 0.9511 - val_loss: 0.2585 - val_accuracy_function: 0.9039 - 1873s/epoch - 666ms/step
Epoch 19/100
2813/2813 - 1873s - loss: 0.1212 - accuracy_function: 0.9530 - val_loss: 0.2607 - val_accuracy_function: 0.9036 - 1873s/epoch - 666ms/step
Epoch 20/100
2813/2813 - 1887s - loss: 0.1162 - accuracy_function: 0.9549 - val_loss: 0.2577 - val_accuracy_function: 0.9064 - 1887s/epoch - 671ms/step
Epoch 21/100
2813/2813 - 1883s - loss: 0.1111 - accuracy_function: 0.9569 - val_loss: 0.2650 - val_accuracy_function: 0.9059 - 1883s/epoch - 669ms/step
Epoch 22/100
2813/2813 - 1886s - loss: 0.1066 - accuracy_function: 0.9587 - val_loss: 0.2644 - val_accuracy_function: 0.9052 - 1886s/epoch - 670ms/step
Epoch 23/100
2813/2813 - 1886s - loss: 0.1024 - accuracy_function: 0.9603 - val_loss: 0.2712 - val_accuracy_function: 0.9045 - 1886s/epoch - 670ms/step
Epoch 24/100
2813/2813 - 1886s - loss: 0.0985 - accuracy_function: 0.9618 - val_loss: 0.2731 - val_accuracy_function: 0.9053 - 1886s/epoch - 670ms/step
Epoch 25/100
2813/2813 - 1886s - loss: 0.0945 - accuracy_function: 0.9634 - val_loss: 0.2762 - val_accuracy_function: 0.9045 - 1886s/epoch - 670ms/step
Epoch 26/100
2813/2813 - 1883s - loss: 0.0910 - accuracy_function: 0.9648 - val_loss: 0.2864 - val_accuracy_function: 0.9047 - 1883s/epoch - 670ms/step
Epoch 27/100
2813/2813 - 1879s - loss: 0.0872 - accuracy_function: 0.9663 - val_loss: 0.2871 - val_accuracy_function: 0.9038 - 1879s/epoch - 668ms/step
Epoch 28/100
2813/2813 - 1875s - loss: 0.0839 - accuracy_function: 0.9676 - val_loss: 0.2957 - val_accuracy_function: 0.9032 - 1875s/epoch - 667ms/step
Epoch 29/100
2813/2813 - 1876s - loss: 0.0807 - accuracy_function: 0.9688 - val_loss: 0.3078 - val_accuracy_function: 0.9033 - 1876s/epoch - 667ms/step
Epoch 30/100
2813/2813 - 1882s - loss: 0.0774 - accuracy_function: 0.9701 - val_loss: 0.3111 - val_accuracy_function: 0.9035 - 1882s/epoch - 669ms/step
Epoch 31/100
2813/2813 - 1885s - loss: 0.0744 - accuracy_function: 0.9713 - val_loss: 0.3204 - val_accuracy_function: 0.9024 - 1885s/epoch - 670ms/step
Epoch 32/100
2813/2813 - 1885s - loss: 0.0716 - accuracy_function: 0.9724 - val_loss: 0.3338 - val_accuracy_function: 0.9010 - 1885s/epoch - 670ms/step
Epoch 33/100
2813/2813 - 1885s - loss: 0.0688 - accuracy_function: 0.9735 - val_loss: 0.3303 - val_accuracy_function: 0.9028 - 1885s/epoch - 670ms/step
Epoch 34/100
2813/2813 - 1885s - loss: 0.0661 - accuracy_function: 0.9746 - val_loss: 0.3394 - val_accuracy_function: 0.9016 - 1885s/epoch - 670ms/step
Epoch 35/100
2813/2813 - 1885s - loss: 0.0636 - accuracy_function: 0.9755 - val_loss: 0.3504 - val_accuracy_function: 0.9014 - 1885s/epoch - 670ms/step
Epoch 36/100
2813/2813 - 1885s - loss: 0.0613 - accuracy_function: 0.9765 - val_loss: 0.3522 - val_accuracy_function: 0.9011 - 1885s/epoch - 670ms/step
Epoch 37/100
2813/2813 - 1883s - loss: 0.0592 - accuracy_function: 0.9773 - val_loss: 0.3653 - val_accuracy_function: 0.9000 - 1883s/epoch - 670ms/step
Epoch 38/100
2813/2813 - 1885s - loss: 0.0571 - accuracy_function: 0.9782 - val_loss: 0.3686 - val_accuracy_function: 0.8994 - 1885s/epoch - 670ms/step
Epoch 39/100
2813/2813 - 1885s - loss: 0.0550 - accuracy_function: 0.9790 - val_loss: 0.3817 - val_accuracy_function: 0.8987 - 1885s/epoch - 670ms/step
Epoch 40/100
2813/2813 - 1884s - loss: 0.0532 - accuracy_function: 0.9797 - val_loss: 0.3961 - val_accuracy_function: 0.8991 - 1884s/epoch - 670ms/step
Epoch 41/100
2813/2813 - 1884s - loss: 0.0513 - accuracy_function: 0.9805 - val_loss: 0.3944 - val_accuracy_function: 0.8989 - 1884s/epoch - 670ms/step
Epoch 42/100
2813/2813 - 1885s - loss: 0.0496 - accuracy_function: 0.9812 - val_loss: 0.4111 - val_accuracy_function: 0.8990 - 1885s/epoch - 670ms/step
Epoch 43/100
2813/2813 - 1883s - loss: 0.0480 - accuracy_function: 0.9818 - val_loss: 0.4162 - val_accuracy_function: 0.8990 - 1883s/epoch - 669ms/step
Epoch 44/100
2813/2813 - 1885s - loss: 0.0465 - accuracy_function: 0.9824 - val_loss: 0.4221 - val_accuracy_function: 0.8980 - 1885s/epoch - 670ms/step
Epoch 45/100
2813/2813 - 1885s - loss: 0.0450 - accuracy_function: 0.9830 - val_loss: 0.4300 - val_accuracy_function: 0.8984 - 1885s/epoch - 670ms/step
Epoch 46/100
2813/2813 - 1884s - loss: 0.0437 - accuracy_function: 0.9836 - val_loss: 0.4462 - val_accuracy_function: 0.8977 - 1884s/epoch - 670ms/step
Epoch 47/100
2813/2813 - 1883s - loss: 0.0423 - accuracy_function: 0.9841 - val_loss: 0.4548 - val_accuracy_function: 0.8968 - 1883s/epoch - 670ms/step
Epoch 48/100
2813/2813 - 1882s - loss: 0.0412 - accuracy_function: 0.9845 - val_loss: 0.4530 - val_accuracy_function: 0.8975 - 1882s/epoch - 669ms/step
Epoch 49/100
2813/2813 - 1882s - loss: 0.0401 - accuracy_function: 0.9850 - val_loss: 0.4648 - val_accuracy_function: 0.8969 - 1882s/epoch - 669ms/step
Epoch 50/100
2813/2813 - 1883s - loss: 0.0388 - accuracy_function: 0.9855 - val_loss: 0.4652 - val_accuracy_function: 0.8977 - 1883s/epoch - 669ms/step
Epoch 51/100
2813/2813 - 1883s - loss: 0.0378 - accuracy_function: 0.9859 - val_loss: 0.4748 - val_accuracy_function: 0.8965 - 1883s/epoch - 669ms/step
Epoch 52/100
2813/2813 - 1883s - loss: 0.0369 - accuracy_function: 0.9863 - val_loss: 0.4793 - val_accuracy_function: 0.8974 - 1883s/epoch - 669ms/step
Epoch 53/100
2813/2813 - 1882s - loss: 0.0357 - accuracy_function: 0.9867 - val_loss: 0.4939 - val_accuracy_function: 0.8970 - 1882s/epoch - 669ms/step
Epoch 54/100
2813/2813 - 1882s - loss: 0.0348 - accuracy_function: 0.9871 - val_loss: 0.4918 - val_accuracy_function: 0.8975 - 1882s/epoch - 669ms/step
Epoch 55/100
2813/2813 - 1883s - loss: 0.0339 - accuracy_function: 0.9874 - val_loss: 0.5039 - val_accuracy_function: 0.8970 - 1883s/epoch - 669ms/step
Epoch 56/100
2813/2813 - 1883s - loss: 0.0332 - accuracy_function: 0.9877 - val_loss: 0.5037 - val_accuracy_function: 0.8971 - 1883s/epoch - 669ms/step
Epoch 57/100
2813/2813 - 1882s - loss: 0.0323 - accuracy_function: 0.9880 - val_loss: 0.5139 - val_accuracy_function: 0.8972 - 1882s/epoch - 669ms/step
Epoch 58/100
2813/2813 - 1883s - loss: 0.0316 - accuracy_function: 0.9884 - val_loss: 0.5248 - val_accuracy_function: 0.8971 - 1883s/epoch - 669ms/step
Epoch 59/100
2813/2813 - 1882s - loss: 0.0310 - accuracy_function: 0.9886 - val_loss: 0.5331 - val_accuracy_function: 0.8962 - 1882s/epoch - 669ms/step
Epoch 60/100
2813/2813 - 1883s - loss: 0.0301 - accuracy_function: 0.9889 - val_loss: 0.5298 - val_accuracy_function: 0.8962 - 1883s/epoch - 669ms/step
Epoch 61/100
2813/2813 - 1883s - loss: 0.0296 - accuracy_function: 0.9892 - val_loss: 0.5405 - val_accuracy_function: 0.8963 - 1883s/epoch - 669ms/step
Epoch 62/100
2813/2813 - 1882s - loss: 0.0289 - accuracy_function: 0.9894 - val_loss: 0.5430 - val_accuracy_function: 0.8967 - 1882s/epoch - 669ms/step
Epoch 63/100
2813/2813 - 1882s - loss: 0.0284 - accuracy_function: 0.9896 - val_loss: 0.5519 - val_accuracy_function: 0.8956 - 1882s/epoch - 669ms/step
Epoch 64/100
2813/2813 - 1882s - loss: 0.0278 - accuracy_function: 0.9898 - val_loss: 0.5544 - val_accuracy_function: 0.8963 - 1882s/epoch - 669ms/step
Epoch 65/100
2813/2813 - 1881s - loss: 0.0273 - accuracy_function: 0.9901 - val_loss: 0.5517 - val_accuracy_function: 0.8967 - 1881s/epoch - 669ms/step
Epoch 66/100
2813/2813 - 1883s - loss: 0.0268 - accuracy_function: 0.9902 - val_loss: 0.5692 - val_accuracy_function: 0.8962 - 1883s/epoch - 669ms/step
Epoch 67/100
2813/2813 - 1881s - loss: 0.0262 - accuracy_function: 0.9905 - val_loss: 0.5658 - val_accuracy_function: 0.8963 - 1881s/epoch - 669ms/step
Epoch 68/100
2813/2813 - 1881s - loss: 0.0258 - accuracy_function: 0.9907 - val_loss: 0.5704 - val_accuracy_function: 0.8956 - 1881s/epoch - 669ms/step
Epoch 69/100
2813/2813 - 1880s - loss: 0.0252 - accuracy_function: 0.9909 - val_loss: 0.5843 - val_accuracy_function: 0.8954 - 1880s/epoch - 668ms/step
Epoch 70/100
2813/2813 - 1881s - loss: 0.0247 - accuracy_function: 0.9911 - val_loss: 0.5821 - val_accuracy_function: 0.8956 - 1881s/epoch - 669ms/step
Epoch 71/100
2813/2813 - 1880s - loss: 0.0244 - accuracy_function: 0.9912 - val_loss: 0.5831 - val_accuracy_function: 0.8959 - 1880s/epoch - 668ms/step
Epoch 72/100
2813/2813 - 1881s - loss: 0.0239 - accuracy_function: 0.9914 - val_loss: 0.5840 - val_accuracy_function: 0.8952 - 1881s/epoch - 669ms/step
Epoch 73/100
2813/2813 - 1881s - loss: 0.0234 - accuracy_function: 0.9916 - val_loss: 0.6058 - val_accuracy_function: 0.8955 - 1881s/epoch - 669ms/step
Epoch 74/100
2813/2813 - 1881s - loss: 0.0229 - accuracy_function: 0.9917 - val_loss: 0.6032 - val_accuracy_function: 0.8962 - 1881s/epoch - 669ms/step
Epoch 75/100
2813/2813 - 1881s - loss: 0.0226 - accuracy_function: 0.9918 - val_loss: 0.6083 - val_accuracy_function: 0.8954 - 1881s/epoch - 669ms/step
Epoch 76/100
2813/2813 - 1881s - loss: 0.0220 - accuracy_function: 0.9920 - val_loss: 0.6108 - val_accuracy_function: 0.8957 - 1881s/epoch - 669ms/step
Epoch 77/100
2813/2813 - 1880s - loss: 0.0218 - accuracy_function: 0.9922 - val_loss: 0.6119 - val_accuracy_function: 0.8954 - 1880s/epoch - 668ms/step
Epoch 78/100
2813/2813 - 1881s - loss: 0.0213 - accuracy_function: 0.9923 - val_loss: 0.6201 - val_accuracy_function: 0.8955 - 1881s/epoch - 669ms/step
Epoch 79/100
2813/2813 - 1881s - loss: 0.0212 - accuracy_function: 0.9924 - val_loss: 0.6218 - val_accuracy_function: 0.8957 - 1881s/epoch - 669ms/step
Epoch 80/100
2813/2813 - 1881s - loss: 0.0207 - accuracy_function: 0.9926 - val_loss: 0.6336 - val_accuracy_function: 0.8952 - 1881s/epoch - 669ms/step
Epoch 81/100
2813/2813 - 1881s - loss: 0.0203 - accuracy_function: 0.9927 - val_loss: 0.6329 - val_accuracy_function: 0.8955 - 1881s/epoch - 669ms/step
Epoch 82/100
2813/2813 - 1881s - loss: 0.0201 - accuracy_function: 0.9928 - val_loss: 0.6238 - val_accuracy_function: 0.8962 - 1881s/epoch - 669ms/step
Epoch 83/100
2813/2813 - 1881s - loss: 0.0198 - accuracy_function: 0.9929 - val_loss: 0.6364 - val_accuracy_function: 0.8960 - 1881s/epoch - 669ms/step
Epoch 84/100
2813/2813 - 1880s - loss: 0.0193 - accuracy_function: 0.9931 - val_loss: 0.6418 - val_accuracy_function: 0.8951 - 1880s/epoch - 668ms/step
Epoch 85/100
2813/2813 - 1882s - loss: 0.0190 - accuracy_function: 0.9932 - val_loss: 0.6364 - val_accuracy_function: 0.8953 - 1882s/epoch - 669ms/step
Epoch 86/100
2813/2813 - 1881s - loss: 0.0188 - accuracy_function: 0.9933 - val_loss: 0.6488 - val_accuracy_function: 0.8958 - 1881s/epoch - 669ms/step
Epoch 87/100
2813/2813 - 1881s - loss: 0.0185 - accuracy_function: 0.9934 - val_loss: 0.6497 - val_accuracy_function: 0.8960 - 1881s/epoch - 669ms/step
Epoch 88/100
2813/2813 - 1881s - loss: 0.0183 - accuracy_function: 0.9935 - val_loss: 0.6608 - val_accuracy_function: 0.8950 - 1881s/epoch - 669ms/step
Epoch 89/100
2813/2813 - 1881s - loss: 0.0181 - accuracy_function: 0.9936 - val_loss: 0.6496 - val_accuracy_function: 0.8954 - 1881s/epoch - 669ms/step
Epoch 90/100
2813/2813 - 1880s - loss: 0.0177 - accuracy_function: 0.9938 - val_loss: 0.6547 - val_accuracy_function: 0.8959 - 1880s/epoch - 668ms/step
Epoch 91/100
2813/2813 - 1881s - loss: 0.0174 - accuracy_function: 0.9938 - val_loss: 0.6663 - val_accuracy_function: 0.8960 - 1881s/epoch - 669ms/step
Epoch 92/100
2813/2813 - 1881s - loss: 0.0172 - accuracy_function: 0.9939 - val_loss: 0.6647 - val_accuracy_function: 0.8962 - 1881s/epoch - 669ms/step
Epoch 93/100
2813/2813 - 1881s - loss: 0.0170 - accuracy_function: 0.9940 - val_loss: 0.6621 - val_accuracy_function: 0.8963 - 1881s/epoch - 669ms/step
Epoch 94/100
2813/2813 - 1881s - loss: 0.0168 - accuracy_function: 0.9940 - val_loss: 0.6755 - val_accuracy_function: 0.8960 - 1881s/epoch - 669ms/step
Epoch 95/100
2813/2813 - 1882s - loss: 0.0165 - accuracy_function: 0.9941 - val_loss: 0.6664 - val_accuracy_function: 0.8958 - 1882s/epoch - 669ms/step
Epoch 96/100
2813/2813 - 1882s - loss: 0.0164 - accuracy_function: 0.9942 - val_loss: 0.6767 - val_accuracy_function: 0.8961 - 1882s/epoch - 669ms/step
Epoch 97/100
2813/2813 - 1882s - loss: 0.0162 - accuracy_function: 0.9943 - val_loss: 0.6698 - val_accuracy_function: 0.8966 - 1882s/epoch - 669ms/step
Epoch 98/100
2813/2813 - 1882s - loss: 0.0159 - accuracy_function: 0.9944 - val_loss: 0.6769 - val_accuracy_function: 0.8960 - 1882s/epoch - 669ms/step
Epoch 99/100
2813/2813 - 1881s - loss: 0.0158 - accuracy_function: 0.9944 - val_loss: 0.6819 - val_accuracy_function: 0.8955 - 1881s/epoch - 669ms/step
Epoch 100/100
2813/2813 - 1882s - loss: 0.0155 - accuracy_function: 0.9945 - val_loss: 0.6864 - val_accuracy_function: 0.8964 - 1882s/epoch - 669ms/step
BEST MODEL VALIDATION ACCURACY:
0.9064489006996155
