DONE WITH READING PAIRS
DONE WITH PREPARING TRAIN DATA
DONE WITH PREPARING VALIDATION DATA
PREPROCESSING DONE!
Testing model output:
(32, 402, 445)
Model: "transformer_model"
_________________________________________________________________
 Layer (type)                Output Shape              Param #   
=================================================================
 positional_embedding_layer   multiple                 6656      
 (PositionalEmbeddingLayer)                                      
                                                                 
 encoder_layer (EncoderLayer  multiple                 1315840   
 )                                                               
                                                                 
 encoder_layer_1 (EncoderLay  multiple                 1315840   
 er)                                                             
                                                                 
 encoder_layer_2 (EncoderLay  multiple                 1315840   
 er)                                                             
                                                                 
 encoder_layer_3 (EncoderLay  multiple                 1315840   
 er)                                                             
                                                                 
 positional_embedding_layer_  multiple                 113920    
 1 (PositionalEmbeddingLayer                                     
 )                                                               
                                                                 
 decoder_layer (DecoderLayer  multiple                 2368256   
 )                                                               
                                                                 
 decoder_layer_1 (DecoderLay  multiple                 2368256   
 er)                                                             
                                                                 
 decoder_layer_2 (DecoderLay  multiple                 2368256   
 er)                                                             
                                                                 
 decoder_layer_3 (DecoderLay  multiple                 2368256   
 er)                                                             
                                                                 
 dense_16 (Dense)            multiple                  114365    
                                                                 
=================================================================
Total params: 14,971,325
Trainable params: 14,971,325
Non-trainable params: 0
_________________________________________________________________
Epoch 1/100
2813/2813 - 792s - loss: 3.9432 - accuracy_function: 0.2096 - val_loss: 4.4934 - val_accuracy_function: 0.1245 - 792s/epoch - 281ms/step
Epoch 2/100
2813/2813 - 735s - loss: 2.2181 - accuracy_function: 0.4724 - val_loss: 0.8797 - val_accuracy_function: 0.7217 - 735s/epoch - 261ms/step
Epoch 3/100
2813/2813 - 734s - loss: 0.5714 - accuracy_function: 0.8095 - val_loss: 0.5412 - val_accuracy_function: 0.8047 - 734s/epoch - 261ms/step
Epoch 4/100
2813/2813 - 734s - loss: 0.3777 - accuracy_function: 0.8629 - val_loss: 0.4161 - val_accuracy_function: 0.8391 - 734s/epoch - 261ms/step
Epoch 5/100
2813/2813 - 734s - loss: 0.2985 - accuracy_function: 0.8877 - val_loss: 0.3418 - val_accuracy_function: 0.8653 - 734s/epoch - 261ms/step
Epoch 6/100
2813/2813 - 734s - loss: 0.2550 - accuracy_function: 0.9032 - val_loss: 0.3186 - val_accuracy_function: 0.8762 - 734s/epoch - 261ms/step
Epoch 7/100
2813/2813 - 734s - loss: 0.2307 - accuracy_function: 0.9118 - val_loss: 0.3046 - val_accuracy_function: 0.8809 - 734s/epoch - 261ms/step
Epoch 8/100
2813/2813 - 733s - loss: 0.2124 - accuracy_function: 0.9183 - val_loss: 0.2924 - val_accuracy_function: 0.8839 - 733s/epoch - 261ms/step
Epoch 9/100
2813/2813 - 733s - loss: 0.1975 - accuracy_function: 0.9237 - val_loss: 0.2877 - val_accuracy_function: 0.8864 - 733s/epoch - 261ms/step
Epoch 10/100
2813/2813 - 733s - loss: 0.1865 - accuracy_function: 0.9277 - val_loss: 0.2837 - val_accuracy_function: 0.8887 - 733s/epoch - 261ms/step
Epoch 11/100
2813/2813 - 733s - loss: 0.1772 - accuracy_function: 0.9313 - val_loss: 0.2701 - val_accuracy_function: 0.8930 - 733s/epoch - 261ms/step
Epoch 12/100
2813/2813 - 734s - loss: 0.1698 - accuracy_function: 0.9340 - val_loss: 0.2660 - val_accuracy_function: 0.8955 - 734s/epoch - 261ms/step
Epoch 13/100
2813/2813 - 734s - loss: 0.1628 - accuracy_function: 0.9367 - val_loss: 0.2676 - val_accuracy_function: 0.8958 - 734s/epoch - 261ms/step
Epoch 14/100
2813/2813 - 733s - loss: 0.1570 - accuracy_function: 0.9389 - val_loss: 0.2676 - val_accuracy_function: 0.8966 - 733s/epoch - 261ms/step
Epoch 15/100
2813/2813 - 734s - loss: 0.1513 - accuracy_function: 0.9412 - val_loss: 0.2655 - val_accuracy_function: 0.8969 - 734s/epoch - 261ms/step
Epoch 16/100
2813/2813 - 734s - loss: 0.1463 - accuracy_function: 0.9430 - val_loss: 0.2666 - val_accuracy_function: 0.8973 - 734s/epoch - 261ms/step
Epoch 17/100
2813/2813 - 734s - loss: 0.1416 - accuracy_function: 0.9449 - val_loss: 0.2633 - val_accuracy_function: 0.8988 - 734s/epoch - 261ms/step
Epoch 18/100
2813/2813 - 733s - loss: 0.1374 - accuracy_function: 0.9466 - val_loss: 0.2664 - val_accuracy_function: 0.8985 - 733s/epoch - 260ms/step
Epoch 19/100
2813/2813 - 733s - loss: 0.1329 - accuracy_function: 0.9482 - val_loss: 0.2714 - val_accuracy_function: 0.8983 - 733s/epoch - 261ms/step
Epoch 20/100
2813/2813 - 735s - loss: 0.1290 - accuracy_function: 0.9498 - val_loss: 0.2689 - val_accuracy_function: 0.8975 - 735s/epoch - 261ms/step
Epoch 21/100
2813/2813 - 734s - loss: 0.1252 - accuracy_function: 0.9512 - val_loss: 0.2710 - val_accuracy_function: 0.8986 - 734s/epoch - 261ms/step
Epoch 22/100
2813/2813 - 735s - loss: 0.1216 - accuracy_function: 0.9527 - val_loss: 0.2738 - val_accuracy_function: 0.8984 - 735s/epoch - 261ms/step
Epoch 23/100
2813/2813 - 734s - loss: 0.1181 - accuracy_function: 0.9540 - val_loss: 0.2830 - val_accuracy_function: 0.8968 - 734s/epoch - 261ms/step
Epoch 24/100
2813/2813 - 734s - loss: 0.1147 - accuracy_function: 0.9554 - val_loss: 0.2842 - val_accuracy_function: 0.8966 - 734s/epoch - 261ms/step
Epoch 25/100
2813/2813 - 734s - loss: 0.1113 - accuracy_function: 0.9567 - val_loss: 0.2842 - val_accuracy_function: 0.8978 - 734s/epoch - 261ms/step
Epoch 26/100
2813/2813 - 734s - loss: 0.1085 - accuracy_function: 0.9579 - val_loss: 0.2853 - val_accuracy_function: 0.8965 - 734s/epoch - 261ms/step
Epoch 27/100
2813/2813 - 735s - loss: 0.1053 - accuracy_function: 0.9591 - val_loss: 0.2968 - val_accuracy_function: 0.8967 - 735s/epoch - 261ms/step
Epoch 28/100
2813/2813 - 734s - loss: 0.1024 - accuracy_function: 0.9602 - val_loss: 0.2943 - val_accuracy_function: 0.8964 - 734s/epoch - 261ms/step
Epoch 29/100
2813/2813 - 735s - loss: 0.0996 - accuracy_function: 0.9613 - val_loss: 0.3035 - val_accuracy_function: 0.8963 - 735s/epoch - 261ms/step
Epoch 30/100
2813/2813 - 735s - loss: 0.0969 - accuracy_function: 0.9624 - val_loss: 0.3075 - val_accuracy_function: 0.8964 - 735s/epoch - 261ms/step
Epoch 31/100
2813/2813 - 735s - loss: 0.0945 - accuracy_function: 0.9634 - val_loss: 0.3093 - val_accuracy_function: 0.8956 - 735s/epoch - 261ms/step
Epoch 32/100
2813/2813 - 736s - loss: 0.0919 - accuracy_function: 0.9643 - val_loss: 0.3121 - val_accuracy_function: 0.8957 - 736s/epoch - 261ms/step
Epoch 33/100
2813/2813 - 735s - loss: 0.0893 - accuracy_function: 0.9653 - val_loss: 0.3213 - val_accuracy_function: 0.8954 - 735s/epoch - 261ms/step
Epoch 34/100
2813/2813 - 736s - loss: 0.0870 - accuracy_function: 0.9662 - val_loss: 0.3233 - val_accuracy_function: 0.8943 - 736s/epoch - 262ms/step
Epoch 35/100
2813/2813 - 735s - loss: 0.0849 - accuracy_function: 0.9671 - val_loss: 0.3289 - val_accuracy_function: 0.8937 - 735s/epoch - 261ms/step
Epoch 36/100
2813/2813 - 735s - loss: 0.0824 - accuracy_function: 0.9681 - val_loss: 0.3364 - val_accuracy_function: 0.8942 - 735s/epoch - 261ms/step
Epoch 37/100
2813/2813 - 736s - loss: 0.0805 - accuracy_function: 0.9689 - val_loss: 0.3354 - val_accuracy_function: 0.8935 - 736s/epoch - 262ms/step
Epoch 38/100
2813/2813 - 735s - loss: 0.0786 - accuracy_function: 0.9696 - val_loss: 0.3399 - val_accuracy_function: 0.8938 - 735s/epoch - 261ms/step
Epoch 39/100
2813/2813 - 735s - loss: 0.0766 - accuracy_function: 0.9704 - val_loss: 0.3454 - val_accuracy_function: 0.8928 - 735s/epoch - 261ms/step
Epoch 40/100
2813/2813 - 735s - loss: 0.0745 - accuracy_function: 0.9712 - val_loss: 0.3502 - val_accuracy_function: 0.8929 - 735s/epoch - 261ms/step
Epoch 41/100
2813/2813 - 736s - loss: 0.0728 - accuracy_function: 0.9719 - val_loss: 0.3557 - val_accuracy_function: 0.8919 - 736s/epoch - 262ms/step
Epoch 42/100
2813/2813 - 735s - loss: 0.0709 - accuracy_function: 0.9726 - val_loss: 0.3675 - val_accuracy_function: 0.8922 - 735s/epoch - 261ms/step
Epoch 43/100
2813/2813 - 736s - loss: 0.0693 - accuracy_function: 0.9733 - val_loss: 0.3766 - val_accuracy_function: 0.8913 - 736s/epoch - 262ms/step
Epoch 44/100
2813/2813 - 735s - loss: 0.0676 - accuracy_function: 0.9739 - val_loss: 0.3764 - val_accuracy_function: 0.8919 - 735s/epoch - 261ms/step
Epoch 45/100
2813/2813 - 736s - loss: 0.0660 - accuracy_function: 0.9746 - val_loss: 0.3831 - val_accuracy_function: 0.8914 - 736s/epoch - 262ms/step
Epoch 46/100
2813/2813 - 736s - loss: 0.0644 - accuracy_function: 0.9752 - val_loss: 0.3917 - val_accuracy_function: 0.8913 - 736s/epoch - 262ms/step
Epoch 47/100
2813/2813 - 735s - loss: 0.0630 - accuracy_function: 0.9757 - val_loss: 0.3938 - val_accuracy_function: 0.8908 - 735s/epoch - 261ms/step
Epoch 48/100
2813/2813 - 735s - loss: 0.0613 - accuracy_function: 0.9764 - val_loss: 0.3915 - val_accuracy_function: 0.8911 - 735s/epoch - 261ms/step
Epoch 49/100
2813/2813 - 735s - loss: 0.0599 - accuracy_function: 0.9770 - val_loss: 0.4020 - val_accuracy_function: 0.8906 - 735s/epoch - 261ms/step
Epoch 50/100
2813/2813 - 736s - loss: 0.0587 - accuracy_function: 0.9775 - val_loss: 0.4197 - val_accuracy_function: 0.8906 - 736s/epoch - 262ms/step
Epoch 51/100
2813/2813 - 736s - loss: 0.0575 - accuracy_function: 0.9780 - val_loss: 0.4258 - val_accuracy_function: 0.8899 - 736s/epoch - 262ms/step
Epoch 52/100
2813/2813 - 735s - loss: 0.0562 - accuracy_function: 0.9784 - val_loss: 0.4243 - val_accuracy_function: 0.8890 - 735s/epoch - 261ms/step
Epoch 53/100
2813/2813 - 735s - loss: 0.0550 - accuracy_function: 0.9790 - val_loss: 0.4274 - val_accuracy_function: 0.8903 - 735s/epoch - 261ms/step
Epoch 54/100
2813/2813 - 735s - loss: 0.0538 - accuracy_function: 0.9795 - val_loss: 0.4368 - val_accuracy_function: 0.8894 - 735s/epoch - 261ms/step
Epoch 55/100
2813/2813 - 735s - loss: 0.0527 - accuracy_function: 0.9798 - val_loss: 0.4410 - val_accuracy_function: 0.8882 - 735s/epoch - 261ms/step
Epoch 56/100
2813/2813 - 735s - loss: 0.0515 - accuracy_function: 0.9804 - val_loss: 0.4508 - val_accuracy_function: 0.8896 - 735s/epoch - 261ms/step
Epoch 57/100
2813/2813 - 735s - loss: 0.0506 - accuracy_function: 0.9808 - val_loss: 0.4582 - val_accuracy_function: 0.8891 - 735s/epoch - 261ms/step
Epoch 58/100
2813/2813 - 735s - loss: 0.0496 - accuracy_function: 0.9811 - val_loss: 0.4559 - val_accuracy_function: 0.8891 - 735s/epoch - 261ms/step
Epoch 59/100
2813/2813 - 735s - loss: 0.0486 - accuracy_function: 0.9815 - val_loss: 0.4743 - val_accuracy_function: 0.8889 - 735s/epoch - 261ms/step
Epoch 60/100
2813/2813 - 735s - loss: 0.0478 - accuracy_function: 0.9818 - val_loss: 0.4670 - val_accuracy_function: 0.8877 - 735s/epoch - 261ms/step
Epoch 61/100
2813/2813 - 735s - loss: 0.0469 - accuracy_function: 0.9823 - val_loss: 0.4782 - val_accuracy_function: 0.8885 - 735s/epoch - 261ms/step
Epoch 62/100
2813/2813 - 735s - loss: 0.0459 - accuracy_function: 0.9825 - val_loss: 0.4868 - val_accuracy_function: 0.8888 - 735s/epoch - 261ms/step
Epoch 63/100
2813/2813 - 735s - loss: 0.0452 - accuracy_function: 0.9829 - val_loss: 0.4959 - val_accuracy_function: 0.8881 - 735s/epoch - 261ms/step
Epoch 64/100
2813/2813 - 736s - loss: 0.0443 - accuracy_function: 0.9833 - val_loss: 0.4834 - val_accuracy_function: 0.8879 - 736s/epoch - 262ms/step
Epoch 65/100
2813/2813 - 736s - loss: 0.0434 - accuracy_function: 0.9836 - val_loss: 0.5032 - val_accuracy_function: 0.8886 - 736s/epoch - 262ms/step
Epoch 66/100
2813/2813 - 736s - loss: 0.0426 - accuracy_function: 0.9839 - val_loss: 0.5068 - val_accuracy_function: 0.8884 - 736s/epoch - 261ms/step
Epoch 67/100
2813/2813 - 735s - loss: 0.0419 - accuracy_function: 0.9842 - val_loss: 0.5187 - val_accuracy_function: 0.8878 - 735s/epoch - 261ms/step
Epoch 68/100
2813/2813 - 738s - loss: 0.0411 - accuracy_function: 0.9845 - val_loss: 0.5134 - val_accuracy_function: 0.8880 - 738s/epoch - 262ms/step
Epoch 69/100
2813/2813 - 754s - loss: 0.0405 - accuracy_function: 0.9848 - val_loss: 0.5174 - val_accuracy_function: 0.8879 - 754s/epoch - 268ms/step
Epoch 70/100
2813/2813 - 755s - loss: 0.0398 - accuracy_function: 0.9850 - val_loss: 0.5286 - val_accuracy_function: 0.8883 - 755s/epoch - 268ms/step
Epoch 71/100
2813/2813 - 755s - loss: 0.0393 - accuracy_function: 0.9853 - val_loss: 0.5306 - val_accuracy_function: 0.8875 - 755s/epoch - 269ms/step
Epoch 72/100
2813/2813 - 754s - loss: 0.0386 - accuracy_function: 0.9855 - val_loss: 0.5401 - val_accuracy_function: 0.8872 - 754s/epoch - 268ms/step
Epoch 73/100
2813/2813 - 754s - loss: 0.0384 - accuracy_function: 0.9857 - val_loss: 0.5377 - val_accuracy_function: 0.8878 - 754s/epoch - 268ms/step
Epoch 74/100
2813/2813 - 755s - loss: 0.0374 - accuracy_function: 0.9860 - val_loss: 0.5390 - val_accuracy_function: 0.8878 - 755s/epoch - 268ms/step
Epoch 75/100
2813/2813 - 754s - loss: 0.0368 - accuracy_function: 0.9862 - val_loss: 0.5519 - val_accuracy_function: 0.8874 - 754s/epoch - 268ms/step
Epoch 76/100
2813/2813 - 755s - loss: 0.0365 - accuracy_function: 0.9864 - val_loss: 0.5555 - val_accuracy_function: 0.8872 - 755s/epoch - 268ms/step
Epoch 77/100
2813/2813 - 755s - loss: 0.0360 - accuracy_function: 0.9866 - val_loss: 0.5635 - val_accuracy_function: 0.8862 - 755s/epoch - 268ms/step
Epoch 78/100
2813/2813 - 756s - loss: 0.0354 - accuracy_function: 0.9868 - val_loss: 0.5581 - val_accuracy_function: 0.8872 - 756s/epoch - 269ms/step
Epoch 79/100
2813/2813 - 755s - loss: 0.0348 - accuracy_function: 0.9870 - val_loss: 0.5689 - val_accuracy_function: 0.8874 - 755s/epoch - 268ms/step
Epoch 80/100
2813/2813 - 755s - loss: 0.0343 - accuracy_function: 0.9872 - val_loss: 0.5733 - val_accuracy_function: 0.8872 - 755s/epoch - 268ms/step
Epoch 81/100
2813/2813 - 754s - loss: 0.0338 - accuracy_function: 0.9875 - val_loss: 0.5845 - val_accuracy_function: 0.8862 - 754s/epoch - 268ms/step
Epoch 82/100
2813/2813 - 755s - loss: 0.0334 - accuracy_function: 0.9876 - val_loss: 0.5797 - val_accuracy_function: 0.8872 - 755s/epoch - 268ms/step
Epoch 83/100
2813/2813 - 754s - loss: 0.0328 - accuracy_function: 0.9879 - val_loss: 0.5956 - val_accuracy_function: 0.8865 - 754s/epoch - 268ms/step
Epoch 84/100
2813/2813 - 754s - loss: 0.0325 - accuracy_function: 0.9880 - val_loss: 0.5901 - val_accuracy_function: 0.8864 - 754s/epoch - 268ms/step
Epoch 85/100
2813/2813 - 748s - loss: 0.0320 - accuracy_function: 0.9882 - val_loss: 0.6026 - val_accuracy_function: 0.8870 - 748s/epoch - 266ms/step
Epoch 86/100
2813/2813 - 739s - loss: 0.0315 - accuracy_function: 0.9883 - val_loss: 0.6031 - val_accuracy_function: 0.8866 - 739s/epoch - 263ms/step
Epoch 87/100
2813/2813 - 737s - loss: 0.0312 - accuracy_function: 0.9885 - val_loss: 0.6081 - val_accuracy_function: 0.8868 - 737s/epoch - 262ms/step
Epoch 88/100
2813/2813 - 738s - loss: 0.0307 - accuracy_function: 0.9887 - val_loss: 0.6125 - val_accuracy_function: 0.8857 - 738s/epoch - 262ms/step
Epoch 89/100
2813/2813 - 736s - loss: 0.0303 - accuracy_function: 0.9889 - val_loss: 0.6182 - val_accuracy_function: 0.8865 - 736s/epoch - 262ms/step
Epoch 90/100
2813/2813 - 737s - loss: 0.0299 - accuracy_function: 0.9890 - val_loss: 0.6196 - val_accuracy_function: 0.8868 - 737s/epoch - 262ms/step
Epoch 91/100
2813/2813 - 737s - loss: 0.0297 - accuracy_function: 0.9891 - val_loss: 0.6157 - val_accuracy_function: 0.8875 - 737s/epoch - 262ms/step
Epoch 92/100
2813/2813 - 737s - loss: 0.0292 - accuracy_function: 0.9893 - val_loss: 0.6275 - val_accuracy_function: 0.8861 - 737s/epoch - 262ms/step
Epoch 93/100
2813/2813 - 736s - loss: 0.0287 - accuracy_function: 0.9894 - val_loss: 0.6238 - val_accuracy_function: 0.8865 - 736s/epoch - 262ms/step
Epoch 94/100
2813/2813 - 735s - loss: 0.0285 - accuracy_function: 0.9896 - val_loss: 0.6386 - val_accuracy_function: 0.8869 - 735s/epoch - 261ms/step
Epoch 95/100
2813/2813 - 736s - loss: 0.0281 - accuracy_function: 0.9897 - val_loss: 0.6374 - val_accuracy_function: 0.8862 - 736s/epoch - 261ms/step
Epoch 96/100
2813/2813 - 736s - loss: 0.0280 - accuracy_function: 0.9898 - val_loss: 0.6383 - val_accuracy_function: 0.8869 - 736s/epoch - 262ms/step
Epoch 97/100
2813/2813 - 735s - loss: 0.0277 - accuracy_function: 0.9899 - val_loss: 0.6477 - val_accuracy_function: 0.8855 - 735s/epoch - 261ms/step
Epoch 98/100
2813/2813 - 735s - loss: 0.0274 - accuracy_function: 0.9900 - val_loss: 0.6484 - val_accuracy_function: 0.8866 - 735s/epoch - 261ms/step
Epoch 99/100
2813/2813 - 735s - loss: 0.0270 - accuracy_function: 0.9901 - val_loss: 0.6487 - val_accuracy_function: 0.8863 - 735s/epoch - 261ms/step
Epoch 100/100
2813/2813 - 735s - loss: 0.0267 - accuracy_function: 0.9903 - val_loss: 0.6581 - val_accuracy_function: 0.8867 - 735s/epoch - 261ms/step
BEST MODEL VALIDATION ACCURACY:
0.8988094925880432
