DONE WITH READING PAIRS
DONE WITH PREPARING TRAIN DATA
DONE WITH PREPARING VALIDATION DATA
PREPROCESSING DONE!
Testing model output:
(32, 402, 445)
Model: "transformer_model"
_________________________________________________________________
 Layer (type)                Output Shape              Param #   
=================================================================
 positional_embedding_layer   multiple                 6656      
 (PositionalEmbeddingLayer)                                      
                                                                 
 encoder_layer (EncoderLayer  multiple                 2367488   
 )                                                               
                                                                 
 encoder_layer_1 (EncoderLay  multiple                 2367488   
 er)                                                             
                                                                 
 encoder_layer_2 (EncoderLay  multiple                 2367488   
 er)                                                             
                                                                 
 encoder_layer_3 (EncoderLay  multiple                 2367488   
 er)                                                             
                                                                 
 positional_embedding_layer_  multiple                 113920    
 1 (PositionalEmbeddingLayer                                     
 )                                                               
                                                                 
 decoder_layer (DecoderLayer  multiple                 4471552   
 )                                                               
                                                                 
 decoder_layer_1 (DecoderLay  multiple                 4471552   
 er)                                                             
                                                                 
 decoder_layer_2 (DecoderLay  multiple                 4471552   
 er)                                                             
                                                                 
 decoder_layer_3 (DecoderLay  multiple                 4471552   
 er)                                                             
                                                                 
 dense_16 (Dense)            multiple                  114365    
                                                                 
=================================================================
Total params: 27,591,101
Trainable params: 27,591,101
Non-trainable params: 0
_________________________________________________________________
Epoch 1/100
2813/2813 - 1346s - loss: 3.9181 - accuracy_function: 0.2126 - val_loss: 4.6468 - val_accuracy_function: 0.1127 - 1346s/epoch - 478ms/step
Epoch 2/100
2813/2813 - 1299s - loss: 2.5058 - accuracy_function: 0.4195 - val_loss: 1.0423 - val_accuracy_function: 0.6892 - 1299s/epoch - 462ms/step
Epoch 3/100
2813/2813 - 1299s - loss: 0.6224 - accuracy_function: 0.7992 - val_loss: 0.4848 - val_accuracy_function: 0.8210 - 1299s/epoch - 462ms/step
Epoch 4/100
2813/2813 - 1299s - loss: 0.3757 - accuracy_function: 0.8643 - val_loss: 0.4047 - val_accuracy_function: 0.8432 - 1299s/epoch - 462ms/step
Epoch 5/100
2813/2813 - 1299s - loss: 0.2969 - accuracy_function: 0.8894 - val_loss: 0.3613 - val_accuracy_function: 0.8629 - 1299s/epoch - 462ms/step
Epoch 6/100
2813/2813 - 1299s - loss: 0.2519 - accuracy_function: 0.9051 - val_loss: 0.3129 - val_accuracy_function: 0.8791 - 1299s/epoch - 462ms/step
Epoch 7/100
2813/2813 - 1299s - loss: 0.2255 - accuracy_function: 0.9143 - val_loss: 0.2953 - val_accuracy_function: 0.8858 - 1299s/epoch - 462ms/step
Epoch 8/100
2813/2813 - 1299s - loss: 0.2074 - accuracy_function: 0.9208 - val_loss: 0.2815 - val_accuracy_function: 0.8903 - 1299s/epoch - 462ms/step
Epoch 9/100
2813/2813 - 1300s - loss: 0.1928 - accuracy_function: 0.9261 - val_loss: 0.2768 - val_accuracy_function: 0.8916 - 1300s/epoch - 462ms/step
Epoch 10/100
2813/2813 - 1300s - loss: 0.1811 - accuracy_function: 0.9305 - val_loss: 0.2663 - val_accuracy_function: 0.8977 - 1300s/epoch - 462ms/step
Epoch 11/100
2813/2813 - 1299s - loss: 0.1709 - accuracy_function: 0.9343 - val_loss: 0.2589 - val_accuracy_function: 0.9004 - 1299s/epoch - 462ms/step
Epoch 12/100
2813/2813 - 1299s - loss: 0.1619 - accuracy_function: 0.9377 - val_loss: 0.2552 - val_accuracy_function: 0.9017 - 1299s/epoch - 462ms/step
Epoch 13/100
2813/2813 - 1299s - loss: 0.1545 - accuracy_function: 0.9405 - val_loss: 0.2601 - val_accuracy_function: 0.9020 - 1299s/epoch - 462ms/step
Epoch 14/100
2813/2813 - 1299s - loss: 0.1479 - accuracy_function: 0.9429 - val_loss: 0.2536 - val_accuracy_function: 0.9039 - 1299s/epoch - 462ms/step
Epoch 15/100
2813/2813 - 1299s - loss: 0.1422 - accuracy_function: 0.9451 - val_loss: 0.2481 - val_accuracy_function: 0.9055 - 1299s/epoch - 462ms/step
Epoch 16/100
2813/2813 - 1299s - loss: 0.1367 - accuracy_function: 0.9473 - val_loss: 0.2471 - val_accuracy_function: 0.9065 - 1299s/epoch - 462ms/step
Epoch 17/100
2813/2813 - 1299s - loss: 0.1319 - accuracy_function: 0.9491 - val_loss: 0.2480 - val_accuracy_function: 0.9065 - 1299s/epoch - 462ms/step
Epoch 18/100
2813/2813 - 1299s - loss: 0.1271 - accuracy_function: 0.9509 - val_loss: 0.2529 - val_accuracy_function: 0.9060 - 1299s/epoch - 462ms/step
Epoch 19/100
2813/2813 - 1298s - loss: 0.1228 - accuracy_function: 0.9526 - val_loss: 0.2529 - val_accuracy_function: 0.9065 - 1298s/epoch - 462ms/step
Epoch 20/100
2813/2813 - 1298s - loss: 0.1185 - accuracy_function: 0.9542 - val_loss: 0.2557 - val_accuracy_function: 0.9064 - 1298s/epoch - 462ms/step
Epoch 21/100
2813/2813 - 1300s - loss: 0.1146 - accuracy_function: 0.9558 - val_loss: 0.2491 - val_accuracy_function: 0.9074 - 1300s/epoch - 462ms/step
Epoch 22/100
2813/2813 - 1305s - loss: 0.1108 - accuracy_function: 0.9572 - val_loss: 0.2555 - val_accuracy_function: 0.9064 - 1305s/epoch - 464ms/step
Epoch 23/100
2813/2813 - 1306s - loss: 0.1072 - accuracy_function: 0.9586 - val_loss: 0.2581 - val_accuracy_function: 0.9070 - 1306s/epoch - 464ms/step
Epoch 24/100
2813/2813 - 1305s - loss: 0.1036 - accuracy_function: 0.9600 - val_loss: 0.2646 - val_accuracy_function: 0.9068 - 1305s/epoch - 464ms/step
Epoch 25/100
2813/2813 - 1305s - loss: 0.1000 - accuracy_function: 0.9614 - val_loss: 0.2731 - val_accuracy_function: 0.9050 - 1305s/epoch - 464ms/step
Epoch 26/100
2813/2813 - 1305s - loss: 0.0968 - accuracy_function: 0.9627 - val_loss: 0.2752 - val_accuracy_function: 0.9055 - 1305s/epoch - 464ms/step
Epoch 27/100
2813/2813 - 1305s - loss: 0.0938 - accuracy_function: 0.9638 - val_loss: 0.2770 - val_accuracy_function: 0.9050 - 1305s/epoch - 464ms/step
Epoch 28/100
2813/2813 - 1303s - loss: 0.0906 - accuracy_function: 0.9651 - val_loss: 0.2900 - val_accuracy_function: 0.9046 - 1303s/epoch - 463ms/step
Epoch 29/100
2813/2813 - 1303s - loss: 0.0875 - accuracy_function: 0.9663 - val_loss: 0.2887 - val_accuracy_function: 0.9047 - 1303s/epoch - 463ms/step
Epoch 30/100
2813/2813 - 1304s - loss: 0.0846 - accuracy_function: 0.9674 - val_loss: 0.2974 - val_accuracy_function: 0.9034 - 1304s/epoch - 464ms/step
Epoch 31/100
2813/2813 - 1304s - loss: 0.0817 - accuracy_function: 0.9686 - val_loss: 0.3013 - val_accuracy_function: 0.9042 - 1304s/epoch - 464ms/step
Epoch 32/100
2813/2813 - 1304s - loss: 0.0792 - accuracy_function: 0.9696 - val_loss: 0.2991 - val_accuracy_function: 0.9039 - 1304s/epoch - 463ms/step
Epoch 33/100
2813/2813 - 1303s - loss: 0.0765 - accuracy_function: 0.9706 - val_loss: 0.3102 - val_accuracy_function: 0.9029 - 1303s/epoch - 463ms/step
Epoch 34/100
2813/2813 - 1304s - loss: 0.0740 - accuracy_function: 0.9716 - val_loss: 0.3183 - val_accuracy_function: 0.9027 - 1304s/epoch - 463ms/step
Epoch 35/100
2813/2813 - 1304s - loss: 0.0717 - accuracy_function: 0.9726 - val_loss: 0.3259 - val_accuracy_function: 0.9030 - 1304s/epoch - 463ms/step
Epoch 36/100
2813/2813 - 1303s - loss: 0.0693 - accuracy_function: 0.9735 - val_loss: 0.3347 - val_accuracy_function: 0.9021 - 1303s/epoch - 463ms/step
Epoch 37/100
2813/2813 - 1304s - loss: 0.0672 - accuracy_function: 0.9743 - val_loss: 0.3376 - val_accuracy_function: 0.9020 - 1304s/epoch - 464ms/step
Epoch 38/100
2813/2813 - 1304s - loss: 0.0650 - accuracy_function: 0.9751 - val_loss: 0.3365 - val_accuracy_function: 0.9018 - 1304s/epoch - 463ms/step
Epoch 39/100
2813/2813 - 1303s - loss: 0.0631 - accuracy_function: 0.9759 - val_loss: 0.3593 - val_accuracy_function: 0.9014 - 1303s/epoch - 463ms/step
Epoch 40/100
2813/2813 - 1304s - loss: 0.0612 - accuracy_function: 0.9767 - val_loss: 0.3593 - val_accuracy_function: 0.9008 - 1304s/epoch - 464ms/step
Epoch 41/100
2813/2813 - 1303s - loss: 0.0594 - accuracy_function: 0.9774 - val_loss: 0.3620 - val_accuracy_function: 0.9010 - 1303s/epoch - 463ms/step
Epoch 42/100
2813/2813 - 1304s - loss: 0.0574 - accuracy_function: 0.9782 - val_loss: 0.3741 - val_accuracy_function: 0.9001 - 1304s/epoch - 463ms/step
Epoch 43/100
2813/2813 - 1303s - loss: 0.0559 - accuracy_function: 0.9788 - val_loss: 0.3860 - val_accuracy_function: 0.9001 - 1303s/epoch - 463ms/step
Epoch 44/100
2813/2813 - 1303s - loss: 0.0543 - accuracy_function: 0.9795 - val_loss: 0.3919 - val_accuracy_function: 0.8995 - 1303s/epoch - 463ms/step
Epoch 45/100
2813/2813 - 1303s - loss: 0.0526 - accuracy_function: 0.9801 - val_loss: 0.3976 - val_accuracy_function: 0.8993 - 1303s/epoch - 463ms/step
Epoch 46/100
2813/2813 - 1303s - loss: 0.0514 - accuracy_function: 0.9806 - val_loss: 0.3941 - val_accuracy_function: 0.8987 - 1303s/epoch - 463ms/step
Epoch 47/100
2813/2813 - 1303s - loss: 0.0497 - accuracy_function: 0.9812 - val_loss: 0.4138 - val_accuracy_function: 0.8995 - 1303s/epoch - 463ms/step
Epoch 48/100
2813/2813 - 1304s - loss: 0.0484 - accuracy_function: 0.9818 - val_loss: 0.4152 - val_accuracy_function: 0.8997 - 1304s/epoch - 464ms/step
Epoch 49/100
2813/2813 - 1304s - loss: 0.0470 - accuracy_function: 0.9823 - val_loss: 0.4192 - val_accuracy_function: 0.8994 - 1304s/epoch - 464ms/step
Epoch 50/100
2813/2813 - 1304s - loss: 0.0459 - accuracy_function: 0.9828 - val_loss: 0.4314 - val_accuracy_function: 0.8989 - 1304s/epoch - 463ms/step
Epoch 51/100
2813/2813 - 1304s - loss: 0.0447 - accuracy_function: 0.9833 - val_loss: 0.4390 - val_accuracy_function: 0.8985 - 1304s/epoch - 464ms/step
Epoch 52/100
2813/2813 - 1304s - loss: 0.0439 - accuracy_function: 0.9836 - val_loss: 0.4415 - val_accuracy_function: 0.8979 - 1304s/epoch - 464ms/step
Epoch 53/100
2813/2813 - 1304s - loss: 0.0426 - accuracy_function: 0.9841 - val_loss: 0.4473 - val_accuracy_function: 0.8984 - 1304s/epoch - 464ms/step
Epoch 54/100
