DONE WITH READING PAIRS
DONE WITH PREPARING TRAIN DATA
DONE WITH PREPARING VALIDATION DATA
PREPROCESSING DONE!
Testing model output:
(32, 402, 445)
Model: "transformer_model"
_________________________________________________________________
 Layer (type)                Output Shape              Param #   
=================================================================
 positional_embedding_layer   multiple                 6656      
 (PositionalEmbeddingLayer)                                      
                                                                 
 encoder_layer (EncoderLayer  multiple                 1315840   
 )                                                               
                                                                 
 positional_embedding_layer_  multiple                 113920    
 1 (PositionalEmbeddingLayer                                     
 )                                                               
                                                                 
 decoder_layer (DecoderLayer  multiple                 2368256   
 )                                                               
                                                                 
 dense_4 (Dense)             multiple                  114365    
                                                                 
=================================================================
Total params: 3,919,037
Trainable params: 3,919,037
Non-trainable params: 0
_________________________________________________________________
Epoch 1/100
2813/2813 - 233s - loss: 4.1610 - accuracy_function: 0.1834 - val_loss: 4.3684 - val_accuracy_function: 0.1294 - 233s/epoch - 83ms/step
Epoch 2/100
2813/2813 - 198s - loss: 1.4394 - accuracy_function: 0.6278 - val_loss: 0.5872 - val_accuracy_function: 0.7933 - 198s/epoch - 70ms/step
Epoch 3/100
2813/2813 - 197s - loss: 0.5290 - accuracy_function: 0.8212 - val_loss: 0.4566 - val_accuracy_function: 0.8268 - 197s/epoch - 70ms/step
Epoch 4/100
2813/2813 - 199s - loss: 0.4314 - accuracy_function: 0.8473 - val_loss: 0.4268 - val_accuracy_function: 0.8352 - 199s/epoch - 71ms/step
Epoch 5/100
2813/2813 - 198s - loss: 0.3869 - accuracy_function: 0.8603 - val_loss: 0.4048 - val_accuracy_function: 0.8432 - 198s/epoch - 70ms/step
Epoch 6/100
2813/2813 - 197s - loss: 0.3591 - accuracy_function: 0.8690 - val_loss: 0.3852 - val_accuracy_function: 0.8492 - 197s/epoch - 70ms/step
Epoch 7/100
2813/2813 - 197s - loss: 0.3392 - accuracy_function: 0.8752 - val_loss: 0.3720 - val_accuracy_function: 0.8555 - 197s/epoch - 70ms/step
Epoch 8/100
2813/2813 - 198s - loss: 0.3247 - accuracy_function: 0.8799 - val_loss: 0.3665 - val_accuracy_function: 0.8560 - 198s/epoch - 70ms/step
Epoch 9/100
2813/2813 - 198s - loss: 0.3130 - accuracy_function: 0.8838 - val_loss: 0.3553 - val_accuracy_function: 0.8609 - 198s/epoch - 70ms/step
Epoch 10/100
2813/2813 - 197s - loss: 0.3032 - accuracy_function: 0.8870 - val_loss: 0.3504 - val_accuracy_function: 0.8628 - 197s/epoch - 70ms/step
Epoch 11/100
2813/2813 - 198s - loss: 0.2956 - accuracy_function: 0.8897 - val_loss: 0.3486 - val_accuracy_function: 0.8632 - 198s/epoch - 71ms/step
Epoch 12/100
2813/2813 - 197s - loss: 0.2887 - accuracy_function: 0.8920 - val_loss: 0.3439 - val_accuracy_function: 0.8645 - 197s/epoch - 70ms/step
Epoch 13/100
2813/2813 - 197s - loss: 0.2828 - accuracy_function: 0.8940 - val_loss: 0.3395 - val_accuracy_function: 0.8667 - 197s/epoch - 70ms/step
Epoch 14/100
2813/2813 - 198s - loss: 0.2772 - accuracy_function: 0.8960 - val_loss: 0.3384 - val_accuracy_function: 0.8676 - 198s/epoch - 70ms/step
Epoch 15/100
2813/2813 - 197s - loss: 0.2724 - accuracy_function: 0.8975 - val_loss: 0.3364 - val_accuracy_function: 0.8688 - 197s/epoch - 70ms/step
Epoch 16/100
2813/2813 - 198s - loss: 0.2676 - accuracy_function: 0.8993 - val_loss: 0.3330 - val_accuracy_function: 0.8696 - 198s/epoch - 70ms/step
Epoch 17/100
2813/2813 - 198s - loss: 0.2633 - accuracy_function: 0.9008 - val_loss: 0.3347 - val_accuracy_function: 0.8684 - 198s/epoch - 70ms/step
Epoch 18/100
2813/2813 - 197s - loss: 0.2589 - accuracy_function: 0.9024 - val_loss: 0.3354 - val_accuracy_function: 0.8686 - 197s/epoch - 70ms/step
Epoch 19/100
2813/2813 - 198s - loss: 0.2547 - accuracy_function: 0.9038 - val_loss: 0.3296 - val_accuracy_function: 0.8704 - 198s/epoch - 70ms/step
Epoch 20/100
2813/2813 - 198s - loss: 0.2511 - accuracy_function: 0.9051 - val_loss: 0.3260 - val_accuracy_function: 0.8723 - 198s/epoch - 70ms/step
Epoch 21/100
2813/2813 - 198s - loss: 0.2478 - accuracy_function: 0.9063 - val_loss: 0.3263 - val_accuracy_function: 0.8730 - 198s/epoch - 70ms/step
Epoch 22/100
2813/2813 - 197s - loss: 0.2445 - accuracy_function: 0.9074 - val_loss: 0.3198 - val_accuracy_function: 0.8749 - 197s/epoch - 70ms/step
Epoch 23/100
2813/2813 - 197s - loss: 0.2418 - accuracy_function: 0.9083 - val_loss: 0.3202 - val_accuracy_function: 0.8745 - 197s/epoch - 70ms/step
Epoch 24/100
2813/2813 - 198s - loss: 0.2392 - accuracy_function: 0.9094 - val_loss: 0.3202 - val_accuracy_function: 0.8745 - 198s/epoch - 70ms/step
Epoch 25/100
2813/2813 - 198s - loss: 0.2370 - accuracy_function: 0.9101 - val_loss: 0.3173 - val_accuracy_function: 0.8750 - 198s/epoch - 70ms/step
Epoch 26/100
2813/2813 - 197s - loss: 0.2346 - accuracy_function: 0.9109 - val_loss: 0.3181 - val_accuracy_function: 0.8756 - 197s/epoch - 70ms/step
Epoch 27/100
2813/2813 - 198s - loss: 0.2328 - accuracy_function: 0.9116 - val_loss: 0.3161 - val_accuracy_function: 0.8766 - 198s/epoch - 70ms/step
Epoch 28/100
2813/2813 - 197s - loss: 0.2310 - accuracy_function: 0.9123 - val_loss: 0.3181 - val_accuracy_function: 0.8755 - 197s/epoch - 70ms/step
Epoch 29/100
2813/2813 - 197s - loss: 0.2292 - accuracy_function: 0.9129 - val_loss: 0.3174 - val_accuracy_function: 0.8764 - 197s/epoch - 70ms/step
Epoch 30/100
2813/2813 - 198s - loss: 0.2274 - accuracy_function: 0.9135 - val_loss: 0.3165 - val_accuracy_function: 0.8768 - 198s/epoch - 70ms/step
Epoch 31/100
2813/2813 - 197s - loss: 0.2258 - accuracy_function: 0.9142 - val_loss: 0.3178 - val_accuracy_function: 0.8764 - 197s/epoch - 70ms/step
Epoch 32/100
2813/2813 - 197s - loss: 0.2245 - accuracy_function: 0.9146 - val_loss: 0.3146 - val_accuracy_function: 0.8768 - 197s/epoch - 70ms/step
Epoch 33/100
2813/2813 - 198s - loss: 0.2230 - accuracy_function: 0.9151 - val_loss: 0.3120 - val_accuracy_function: 0.8783 - 198s/epoch - 70ms/step
Epoch 34/100
2813/2813 - 198s - loss: 0.2217 - accuracy_function: 0.9156 - val_loss: 0.3111 - val_accuracy_function: 0.8784 - 198s/epoch - 70ms/step
Epoch 35/100
2813/2813 - 197s - loss: 0.2203 - accuracy_function: 0.9161 - val_loss: 0.3161 - val_accuracy_function: 0.8772 - 197s/epoch - 70ms/step
Epoch 36/100
2813/2813 - 197s - loss: 0.2189 - accuracy_function: 0.9166 - val_loss: 0.3129 - val_accuracy_function: 0.8785 - 197s/epoch - 70ms/step
Epoch 37/100
2813/2813 - 198s - loss: 0.2179 - accuracy_function: 0.9170 - val_loss: 0.3114 - val_accuracy_function: 0.8786 - 198s/epoch - 70ms/step
Epoch 38/100
2813/2813 - 198s - loss: 0.2167 - accuracy_function: 0.9175 - val_loss: 0.3101 - val_accuracy_function: 0.8791 - 198s/epoch - 70ms/step
Epoch 39/100
2813/2813 - 197s - loss: 0.2155 - accuracy_function: 0.9178 - val_loss: 0.3101 - val_accuracy_function: 0.8788 - 197s/epoch - 70ms/step
Epoch 40/100
2813/2813 - 198s - loss: 0.2144 - accuracy_function: 0.9183 - val_loss: 0.3194 - val_accuracy_function: 0.8766 - 198s/epoch - 70ms/step
Epoch 41/100
2813/2813 - 197s - loss: 0.2133 - accuracy_function: 0.9186 - val_loss: 0.3145 - val_accuracy_function: 0.8780 - 197s/epoch - 70ms/step
Epoch 42/100
2813/2813 - 197s - loss: 0.2123 - accuracy_function: 0.9190 - val_loss: 0.3109 - val_accuracy_function: 0.8788 - 197s/epoch - 70ms/step
Epoch 43/100
2813/2813 - 198s - loss: 0.2113 - accuracy_function: 0.9194 - val_loss: 0.3101 - val_accuracy_function: 0.8797 - 198s/epoch - 70ms/step
Epoch 44/100
2813/2813 - 198s - loss: 0.2102 - accuracy_function: 0.9198 - val_loss: 0.3078 - val_accuracy_function: 0.8799 - 198s/epoch - 70ms/step
Epoch 45/100
2813/2813 - 197s - loss: 0.2094 - accuracy_function: 0.9201 - val_loss: 0.3104 - val_accuracy_function: 0.8793 - 197s/epoch - 70ms/step
Epoch 46/100
2813/2813 - 197s - loss: 0.2084 - accuracy_function: 0.9204 - val_loss: 0.3086 - val_accuracy_function: 0.8804 - 197s/epoch - 70ms/step
Epoch 47/100
2813/2813 - 198s - loss: 0.2074 - accuracy_function: 0.9208 - val_loss: 0.3114 - val_accuracy_function: 0.8796 - 198s/epoch - 70ms/step
Epoch 48/100
2813/2813 - 197s - loss: 0.2066 - accuracy_function: 0.9211 - val_loss: 0.3062 - val_accuracy_function: 0.8807 - 197s/epoch - 70ms/step
Epoch 49/100
2813/2813 - 197s - loss: 0.2057 - accuracy_function: 0.9215 - val_loss: 0.3062 - val_accuracy_function: 0.8808 - 197s/epoch - 70ms/step
Epoch 50/100
2813/2813 - 198s - loss: 0.2049 - accuracy_function: 0.9218 - val_loss: 0.3073 - val_accuracy_function: 0.8807 - 198s/epoch - 70ms/step
Epoch 51/100
2813/2813 - 198s - loss: 0.2041 - accuracy_function: 0.9220 - val_loss: 0.3053 - val_accuracy_function: 0.8815 - 198s/epoch - 70ms/step
Epoch 52/100
2813/2813 - 198s - loss: 0.2033 - accuracy_function: 0.9223 - val_loss: 0.3064 - val_accuracy_function: 0.8813 - 198s/epoch - 70ms/step
Epoch 53/100
2813/2813 - 198s - loss: 0.2023 - accuracy_function: 0.9228 - val_loss: 0.3022 - val_accuracy_function: 0.8821 - 198s/epoch - 71ms/step
Epoch 54/100
2813/2813 - 198s - loss: 0.2016 - accuracy_function: 0.9229 - val_loss: 0.3026 - val_accuracy_function: 0.8828 - 198s/epoch - 70ms/step
Epoch 55/100
2813/2813 - 197s - loss: 0.2008 - accuracy_function: 0.9232 - val_loss: 0.3012 - val_accuracy_function: 0.8829 - 197s/epoch - 70ms/step
Epoch 56/100
2813/2813 - 197s - loss: 0.2001 - accuracy_function: 0.9235 - val_loss: 0.3021 - val_accuracy_function: 0.8823 - 197s/epoch - 70ms/step
Epoch 57/100
2813/2813 - 198s - loss: 0.1991 - accuracy_function: 0.9238 - val_loss: 0.3026 - val_accuracy_function: 0.8821 - 198s/epoch - 70ms/step
Epoch 58/100
2813/2813 - 197s - loss: 0.1987 - accuracy_function: 0.9240 - val_loss: 0.3024 - val_accuracy_function: 0.8827 - 197s/epoch - 70ms/step
Epoch 59/100
2813/2813 - 197s - loss: 0.1977 - accuracy_function: 0.9244 - val_loss: 0.3011 - val_accuracy_function: 0.8829 - 197s/epoch - 70ms/step
Epoch 60/100
2813/2813 - 199s - loss: 0.1970 - accuracy_function: 0.9247 - val_loss: 0.2983 - val_accuracy_function: 0.8838 - 199s/epoch - 71ms/step
Epoch 61/100
2813/2813 - 197s - loss: 0.1963 - accuracy_function: 0.9249 - val_loss: 0.3012 - val_accuracy_function: 0.8834 - 197s/epoch - 70ms/step
Epoch 62/100
2813/2813 - 197s - loss: 0.1957 - accuracy_function: 0.9251 - val_loss: 0.2983 - val_accuracy_function: 0.8840 - 197s/epoch - 70ms/step
Epoch 63/100
2813/2813 - 198s - loss: 0.1950 - accuracy_function: 0.9254 - val_loss: 0.2998 - val_accuracy_function: 0.8839 - 198s/epoch - 70ms/step
Epoch 64/100
2813/2813 - 198s - loss: 0.1942 - accuracy_function: 0.9257 - val_loss: 0.2966 - val_accuracy_function: 0.8850 - 198s/epoch - 70ms/step
Epoch 65/100
2813/2813 - 197s - loss: 0.1936 - accuracy_function: 0.9259 - val_loss: 0.3012 - val_accuracy_function: 0.8834 - 197s/epoch - 70ms/step
Epoch 66/100
2813/2813 - 197s - loss: 0.1930 - accuracy_function: 0.9261 - val_loss: 0.2920 - val_accuracy_function: 0.8865 - 197s/epoch - 70ms/step
Epoch 67/100
2813/2813 - 197s - loss: 0.1924 - accuracy_function: 0.9263 - val_loss: 0.2947 - val_accuracy_function: 0.8860 - 197s/epoch - 70ms/step
Epoch 68/100
2813/2813 - 197s - loss: 0.1916 - accuracy_function: 0.9267 - val_loss: 0.2953 - val_accuracy_function: 0.8859 - 197s/epoch - 70ms/step
Epoch 69/100
2813/2813 - 197s - loss: 0.1910 - accuracy_function: 0.9269 - val_loss: 0.2942 - val_accuracy_function: 0.8857 - 197s/epoch - 70ms/step
Epoch 70/100
2813/2813 - 197s - loss: 0.1906 - accuracy_function: 0.9270 - val_loss: 0.2932 - val_accuracy_function: 0.8857 - 197s/epoch - 70ms/step
Epoch 71/100
2813/2813 - 197s - loss: 0.1899 - accuracy_function: 0.9273 - val_loss: 0.2966 - val_accuracy_function: 0.8858 - 197s/epoch - 70ms/step
Epoch 72/100
2813/2813 - 197s - loss: 0.1893 - accuracy_function: 0.9275 - val_loss: 0.2932 - val_accuracy_function: 0.8864 - 197s/epoch - 70ms/step
Epoch 73/100
2813/2813 - 198s - loss: 0.1888 - accuracy_function: 0.9277 - val_loss: 0.2926 - val_accuracy_function: 0.8866 - 198s/epoch - 70ms/step
Epoch 74/100
2813/2813 - 198s - loss: 0.1882 - accuracy_function: 0.9279 - val_loss: 0.2903 - val_accuracy_function: 0.8875 - 198s/epoch - 70ms/step
Epoch 75/100
2813/2813 - 198s - loss: 0.1876 - accuracy_function: 0.9281 - val_loss: 0.2919 - val_accuracy_function: 0.8878 - 198s/epoch - 70ms/step
Epoch 76/100
2813/2813 - 198s - loss: 0.1870 - accuracy_function: 0.9284 - val_loss: 0.2930 - val_accuracy_function: 0.8875 - 198s/epoch - 70ms/step
Epoch 77/100
2813/2813 - 197s - loss: 0.1866 - accuracy_function: 0.9285 - val_loss: 0.2881 - val_accuracy_function: 0.8884 - 197s/epoch - 70ms/step
Epoch 78/100
2813/2813 - 197s - loss: 0.1858 - accuracy_function: 0.9288 - val_loss: 0.2896 - val_accuracy_function: 0.8884 - 197s/epoch - 70ms/step
Epoch 79/100
2813/2813 - 198s - loss: 0.1855 - accuracy_function: 0.9290 - val_loss: 0.2908 - val_accuracy_function: 0.8877 - 198s/epoch - 70ms/step
Epoch 80/100
2813/2813 - 197s - loss: 0.1848 - accuracy_function: 0.9292 - val_loss: 0.2898 - val_accuracy_function: 0.8882 - 197s/epoch - 70ms/step
Epoch 81/100
2813/2813 - 197s - loss: 0.1844 - accuracy_function: 0.9293 - val_loss: 0.2875 - val_accuracy_function: 0.8891 - 197s/epoch - 70ms/step
Epoch 82/100
2813/2813 - 197s - loss: 0.1840 - accuracy_function: 0.9296 - val_loss: 0.2882 - val_accuracy_function: 0.8886 - 197s/epoch - 70ms/step
Epoch 83/100
2813/2813 - 197s - loss: 0.1836 - accuracy_function: 0.9296 - val_loss: 0.2870 - val_accuracy_function: 0.8888 - 197s/epoch - 70ms/step
Epoch 84/100
2813/2813 - 197s - loss: 0.1830 - accuracy_function: 0.9299 - val_loss: 0.2888 - val_accuracy_function: 0.8892 - 197s/epoch - 70ms/step
Epoch 85/100
2813/2813 - 197s - loss: 0.1827 - accuracy_function: 0.9301 - val_loss: 0.2878 - val_accuracy_function: 0.8889 - 197s/epoch - 70ms/step
Epoch 86/100
2813/2813 - 198s - loss: 0.1824 - accuracy_function: 0.9301 - val_loss: 0.2879 - val_accuracy_function: 0.8894 - 198s/epoch - 70ms/step
Epoch 87/100
2813/2813 - 198s - loss: 0.1818 - accuracy_function: 0.9304 - val_loss: 0.2868 - val_accuracy_function: 0.8894 - 198s/epoch - 70ms/step
Epoch 88/100
2813/2813 - 197s - loss: 0.1814 - accuracy_function: 0.9305 - val_loss: 0.2884 - val_accuracy_function: 0.8894 - 197s/epoch - 70ms/step
Epoch 89/100
2813/2813 - 197s - loss: 0.1809 - accuracy_function: 0.9307 - val_loss: 0.2888 - val_accuracy_function: 0.8890 - 197s/epoch - 70ms/step
Epoch 90/100
2813/2813 - 197s - loss: 0.1804 - accuracy_function: 0.9309 - val_loss: 0.2873 - val_accuracy_function: 0.8893 - 197s/epoch - 70ms/step
Epoch 91/100
2813/2813 - 197s - loss: 0.1800 - accuracy_function: 0.9309 - val_loss: 0.2874 - val_accuracy_function: 0.8894 - 197s/epoch - 70ms/step
Epoch 92/100
2813/2813 - 198s - loss: 0.1797 - accuracy_function: 0.9312 - val_loss: 0.2856 - val_accuracy_function: 0.8898 - 198s/epoch - 70ms/step
Epoch 93/100
2813/2813 - 198s - loss: 0.1793 - accuracy_function: 0.9313 - val_loss: 0.2860 - val_accuracy_function: 0.8897 - 198s/epoch - 70ms/step
Epoch 94/100
2813/2813 - 197s - loss: 0.1789 - accuracy_function: 0.9314 - val_loss: 0.2847 - val_accuracy_function: 0.8901 - 197s/epoch - 70ms/step
Epoch 95/100
2813/2813 - 197s - loss: 0.1786 - accuracy_function: 0.9316 - val_loss: 0.2868 - val_accuracy_function: 0.8900 - 197s/epoch - 70ms/step
Epoch 96/100
2813/2813 - 198s - loss: 0.1782 - accuracy_function: 0.9317 - val_loss: 0.2868 - val_accuracy_function: 0.8897 - 198s/epoch - 70ms/step
Epoch 97/100
2813/2813 - 197s - loss: 0.1778 - accuracy_function: 0.9318 - val_loss: 0.2867 - val_accuracy_function: 0.8897 - 197s/epoch - 70ms/step
Epoch 98/100
2813/2813 - 197s - loss: 0.1774 - accuracy_function: 0.9320 - val_loss: 0.2893 - val_accuracy_function: 0.8892 - 197s/epoch - 70ms/step
Epoch 99/100
2813/2813 - 198s - loss: 0.1771 - accuracy_function: 0.9320 - val_loss: 0.2841 - val_accuracy_function: 0.8902 - 198s/epoch - 70ms/step
Epoch 100/100
2813/2813 - 197s - loss: 0.1768 - accuracy_function: 0.9322 - val_loss: 0.2861 - val_accuracy_function: 0.8906 - 197s/epoch - 70ms/step
BEST MODEL VALIDATION ACCURACY:
0.890611469745636
